%YAML 1.1
%TAG !u! tag:unity3d.com,2011:
--- !u!221 &22100000
AnimatorOverrideController:
  m_ObjectHideFlags: 0
  m_CorrespondingSourceObject: {fileID: 0}
  m_PrefabInstance: {fileID: 0}
  m_PrefabAsset: {fileID: 0}
  m_Name: Animator_Enemy_2
  m_Controller: {fileID: 9100000, guid: 2f719e9dbccb0f9418f4cf9623c59e7a, type: 2}
  m_Clips:
  - m_OriginalClip: {fileID: 7400000, guid: 81a615dfcb5d0a64cafe0101f9a82bcd, type: 2}
    m_OverrideClip: {fileID: 7400000, guid: cae39a628dac90240ac8470c64571231, type: 2}
